%YAML 1.1
%TAG !u! tag:unity3d.com,2011:
--- !u!21 &2100000
Material:
  serializedVersion: 6
  m_ObjectHideFlags: 0
  m_PrefabParentObject: {fileID: 0}
  m_PrefabInternal: {fileID: 0}
  m_Name: Tree_01_leaf_01
  m_Shader: {fileID: 7, guid: 0000000000000000f000000000000000, type: 0}
  m_ShaderKeywords: 
  m_LightmapFlags: 4
  m_EnableInstancingVariants: 0
  m_CustomRenderQueue: -1
  stringTagMap: {}
  disabledShaderPasses: []
  m_SavedProperties:
    serializedVersion: 3
    m_TexEnvs:
    - _BumpMap:
        m_Texture: {fileID: 0}
        m_Scale: {x: 1, y: 1}
        m_Offset: {x: 0, y: 0}
    - _GlossMap:
        m_Texture: {fileID: 0}
        m_Scale: {x: 1, y: 1}
        m_Offset: {x: 0, y: 0}
    - _MainTex:
        m_Texture: {fileID: 2800000, guid: 69bb2d14ca2286440b42753abe1886a8, type: 3}
        m_Scale: {x: 1, y: 1}
        m_Offset: {x: 0, y: 0}
    - _ShadowOffset:
        m_Texture: {fileID: 0}
        m_Scale: {x: 1, y: 1}
        m_Offset: {x: 0, y: 0}
    - _TranslucencyMap:
        m_Texture: {fileID: 0}
        m_Scale: {x: 1, y: 1}
        m_Offset: {x: 0, y: 0}
    m_Floats:
    - _AO: 3.5820894
    - _BaseLight: 0.2686567
    - _Cutoff: 0.5
    - _Occlusion: 16.716417
    - _ShadowStrength: 1
    - _Shininess: 0.7
    - _SquashAmount: 1
    - _TranslucencyViewDependency: 0.7
    m_Colors:
    - _Color: {r: 1, g: 1, b: 1, a: 1}
    - _EmisColor: {r: 0.2, g: 0.2, b: 0.2, a: 0}
    - _Emission: {r: 0.43283582, g: 0.43283582, b: 0.43283582, a: 0}
    - _Scale: {r: 1, g: 1, b: 1, a: 1}
    - _SpecColor: {r: 1, g: 1, b: 1, a: 1}
    - _TranslucencyColor: {r: 0.73, g: 0.85, b: 0.41, a: 1}
